MODULE onemod;
(* Copyright 199x Armadillo Computing *)
(* Original Author Mike Lawrence *)
(* Benchmark version *)

FROM InOut IMPORT WriteString,WriteLn;

BEGIN

WriteString("Hi there guys!");WriteLn;

END onemod.

